{
    "item": [
        {
            "id": "f13ac0b0-d6d7-4bd2-b4a9-95ba905ffda6",
            "name": "regsources",
            "item": [
                {
                    "id": "f3b9520a-6b90-4fc5-b12e-fc4bb31c0086",
                    "name": "Fetch all sources",
                    "request": {
                        "name": "Fetch all sources",
                        "description": {
                            "content": "Get many sources with paginations option",
                            "type": "text/plain"
                        },
                        "url": {
                            "path": [
                                "regsources"
                            ],
                            "host": [
                                "{{baseUrl}}"
                            ],
                            "query": [
                                {
                                    "description": "Number of sources returned",
                                    "key": "pageSize",
                                    "value": "<integer>"
                                },
                                {
                                    "description": "Page number in the database",
                                    "key": "pageNumber",
                                    "value": "<integer>"
                                }
                            ],
                            "variable": []
                        },
                        "method": "GET"
                    },
                    "response": [
                        {
                            "id": "fa3a72ed-166b-4f31-8f5b-8c4cdf3dbb44",
                            "name": "successful operation",
                            "originalRequest": {
                                "url": {
                                    "path": [
                                        "regsources"
                                    ],
                                    "host": [
                                        "{{baseUrl}}"
                                    ],
                                    "query": [
                                        {
                                            "key": "pageSize",
                                            "value": "<integer>"
                                        },
                                        {
                                            "key": "pageNumber",
                                            "value": "<integer>"
                                        }
                                    ],
                                    "variable": []
                                },
                                "method": "GET",
                                "body": {}
                            },
                            "status": "OK",
                            "code": 200,
                            "header": [
                                {
                                    "key": "Content-Type",
                                    "value": "application/json"
                                }
                            ],
                            "body": "[\n {\n  \"Name\": \"<string>\",\n  \"Brand\": \"<string>\",\n  \"Category\": \"<string>\",\n  \"SubCategory\": \"<string>\",\n  \"Newsletters\": [\n   \"<string>\",\n   \"<string>\"\n  ],\n  \"Type\": [\n   \"<string>\",\n   \"<string>\"\n  ],\n  \"CreatedAt\": \"<dateTime>\",\n  \"UpdateAt\": \"<dateTime>\",\n  \"Enable\": \"<boolean>\"\n },\n {\n  \"Name\": \"<string>\",\n  \"Brand\": \"<string>\",\n  \"Category\": \"<string>\",\n  \"SubCategory\": \"<string>\",\n  \"Newsletters\": [\n   \"<string>\",\n   \"<string>\"\n  ],\n  \"Type\": [\n   \"<string>\",\n   \"<string>\"\n  ],\n  \"CreatedAt\": \"<dateTime>\",\n  \"UpdateAt\": \"<dateTime>\",\n  \"Enable\": \"<boolean>\"\n }\n]",
                            "cookie": [],
                            "_postman_previewlanguage": "json"
                        },
                        {
                            "id": "f101f253-b73d-4c79-9253-ca2da4bde6a0",
                            "name": "Registration source bad request",
                            "originalRequest": {
                                "url": {
                                    "path": [
                                        "regsources"
                                    ],
                                    "host": [
                                        "{{baseUrl}}"
                                    ],
                                    "query": [
                                        {
                                            "key": "pageSize",
                                            "value": "<integer>"
                                        },
                                        {
                                            "key": "pageNumber",
                                            "value": "<integer>"
                                        }
                                    ],
                                    "variable": []
                                },
                                "method": "GET",
                                "body": {}
                            },
                            "status": "Bad Request",
                            "code": 400,
                            "header": [
                                {
                                    "key": "Content-Type",
                                    "value": "application/json"
                                }
                            ],
                            "body": "{\n \"code\": \"<string>\",\n \"status\": \"<string>\",\n \"detail\": \"<string>\"\n}",
                            "cookie": [],
                            "_postman_previewlanguage": "json"
                        }
                    ],
                    "event": []
                },
                {
                    "id": "ef6ba104-23d3-4c4f-aade-6806c9eb1c92",
                    "name": "Adds a new Registration Source",
                    "request": {
                        "name": "Adds a new Registration Source",
                        "description": {
                            "content": "Adds an new Registration Source in the database",
                            "type": "text/plain"
                        },
                        "url": {
                            "path": [
                                "regsources"
                            ],
                            "host": [
                                "{{baseUrl}}"
                            ],
                            "query": [],
                            "variable": []
                        },
                        "header": [
                            {
                                "key": "Content-Type",
                                "value": "application/json"
                            }
                        ],
                        "method": "POST",
                        "body": {
                            "mode": "raw",
                            "raw": "{\n    \"Name\": \"Family Circle Timeline Giveaway\",\n    \"Brand\": \"parents\",\n    \"Category\": \"300002\",\n    \"SubCategory\": \"100001\",\n    \"newsletter\": [\n        \"12\"\n    ],\n    \"Type\": [\n        \"type1\",\n        \"type2\"\n    ]\n}"
                        }
                    },
                    "response": [
                        {
                            "id": "bea8cc8f-195f-473f-8b3b-c12fa96cae26",
                            "name": "Registration source created",
                            "originalRequest": {
                                "url": {
                                    "path": [
                                        "regsources"
                                    ],
                                    "host": [
                                        "{{baseUrl}}"
                                    ],
                                    "query": [],
                                    "variable": []
                                },
                                "header": [
                                    {
                                        "key": "Content-Type",
                                        "value": "application/json"
                                    }
                                ],
                                "method": "POST",
                                "body": {
                                    "mode": "raw",
                                    "raw": "{\n    \"Name\": \"Family Circle Timeline Giveaway\",\n    \"Brand\": \"parents\",\n    \"Category\": \"300002\",\n    \"SubCategory\": \"100001\",\n    \"newsletter\": [\n        \"12\"\n    ],\n    \"Type\": [\n        \"type1\",\n        \"type2\"\n    ]\n}"
                                }
                            },
                            "status": "Created",
                            "code": 201,
                            "header": [
                                {
                                    "key": "Content-Type",
                                    "value": "application/json"
                                }
                            ],
                            "body": "{\n \"RegSourceID\": \"12271\",\n \"Name\": \"Family Circle Timeline Giveaway\",\n \"Brand\": \"parents\",\n \"Category\": \"300002\",\n \"CreateAt\": \"2015-07-20T15:49:04-07:00\",\n \"UpdateAt\": \"2015-07-20T15:49:04-07:00\",\n \"SubCategory\": \"100001\",\n \"newsletter\": [\n  \"12\"\n ],\n \"Type\": [\n  \"type1\",\n  \"type2\"\n ]\n}",
                            "cookie": [],
                            "_postman_previewlanguage": "json"
                        },
                        {
                            "id": "b3d83617-77c9-4c22-b9b6-9a62f5c88b2c",
                            "name": "Registration source bad request",
                            "originalRequest": {
                                "url": {
                                    "path": [
                                        "regsources"
                                    ],
                                    "host": [
                                        "{{baseUrl}}"
                                    ],
                                    "query": [],
                                    "variable": []
                                },
                                "header": [
                                    {
                                        "key": "Content-Type",
                                        "value": "application/json"
                                    }
                                ],
                                "method": "POST",
                                "body": {
                                    "mode": "raw",
                                    "raw": "{\n    \"Name\": \"Family Circle Timeline Giveaway\",\n    \"Brand\": \"parents\",\n    \"Category\": \"300002\",\n    \"SubCategory\": \"100001\",\n    \"newsletter\": [\n        \"12\"\n    ],\n    \"Type\": [\n        \"type1\",\n        \"type2\"\n    ]\n}"
                                }
                            },
                            "status": "Bad Request",
                            "code": 400,
                            "header": [
                                {
                                    "key": "Content-Type",
                                    "value": "application/json"
                                }
                            ],
                            "body": "{\n \"code\": \"<string>\",\n \"status\": \"<string>\",\n \"detail\": \"<string>\"\n}",
                            "cookie": [],
                            "_postman_previewlanguage": "json"
                        }
                    ],
                    "event": []
                },
                {
                    "id": "3865a95a-928a-4593-aeda-5ea5d0f6c3c7",
                    "name": "{reg Source ID}",
                    "item": [
                        {
                            "id": "4c61d738-6729-4e65-aace-c25ad8e051c1",
                            "name": "Fetch a source",
                            "request": {
                                "name": "Fetch a source",
                                "description": {
                                    "content": "Get a source object by id",
                                    "type": "text/plain"
                                },
                                "url": {
                                    "path": [
                                        "regsources",
                                        ":regSourceID"
                                    ],
                                    "host": [
                                        "{{baseUrl}}"
                                    ],
                                    "query": [],
                                    "variable": [
                                        {
                                            "description": {
                                                "content": "Entity id",
                                                "type": "text/plain"
                                            },
                                            "type": "any",
                                            "value": "<string>",
                                            "key": "regSourceID"
                                        }
                                    ]
                                },
                                "method": "GET"
                            },
                            "response": [
                                {
                                    "id": "72ee85a1-6dce-46ef-9257-7b7c993ac11f",
                                    "name": "successful operation",
                                    "originalRequest": {
                                        "url": {
                                            "path": [
                                                "regsources",
                                                "<string>"
                                            ],
                                            "host": [
                                                "{{baseUrl}}"
                                            ],
                                            "query": [],
                                            "variable": []
                                        },
                                        "method": "GET",
                                        "body": {}
                                    },
                                    "status": "OK",
                                    "code": 200,
                                    "header": [
                                        {
                                            "key": "Content-Type",
                                            "value": "application/json"
                                        }
                                    ],
                                    "body": "{\n \"RegSourceID\": \"<string>\",\n \"Name\": \"<string>\",\n \"Brand\": \"<string>\",\n \"Category\": \"<string>\",\n \"SubCategory\": \"<string>\",\n \"Newsletters\": [\n  \"<string>\",\n  \"<string>\"\n ],\n \"Type\": [\n  \"<string>\",\n  \"<string>\"\n ],\n \"CreatedAt\": \"<dateTime>\",\n \"UpdateAt\": \"<dateTime>\",\n \"Enable\": \"<boolean>\"\n}",
                                    "cookie": [],
                                    "_postman_previewlanguage": "json"
                                },
                                {
                                    "id": "3945abff-78fe-4d3d-8d02-1ff46337024f",
                                    "name": "Registration source bad request",
                                    "originalRequest": {
                                        "url": {
                                            "path": [
                                                "regsources",
                                                "<string>"
                                            ],
                                            "host": [
                                                "{{baseUrl}}"
                                            ],
                                            "query": [],
                                            "variable": []
                                        },
                                        "method": "GET",
                                        "body": {}
                                    },
                                    "status": "Bad Request",
                                    "code": 400,
                                    "header": [
                                        {
                                            "key": "Content-Type",
                                            "value": "application/json"
                                        }
                                    ],
                                    "body": "{\n \"code\": \"<string>\",\n \"status\": \"<string>\",\n \"detail\": \"<string>\"\n}",
                                    "cookie": [],
                                    "_postman_previewlanguage": "json"
                                },
                                {
                                    "id": "883450e0-2919-4b37-bc7e-2810088c67c6",
                                    "name": "Registration source not founded",
                                    "originalRequest": {
                                        "url": {
                                            "path": [
                                                "regsources",
                                                "<string>"
                                            ],
                                            "host": [
                                                "{{baseUrl}}"
                                            ],
                                            "query": [],
                                            "variable": []
                                        },
                                        "method": "GET",
                                        "body": {}
                                    },
                                    "status": "Not Found",
                                    "code": 404,
                                    "header": [
                                        {
                                            "key": "Content-Type",
                                            "value": "application/json"
                                        }
                                    ],
                                    "body": "{\n \"code\": \"<string>\",\n \"status\": \"<string>\",\n \"detail\": \"<string>\"\n}",
                                    "cookie": [],
                                    "_postman_previewlanguage": "json"
                                }
                            ],
                            "event": []
                        },
                        {
                            "id": "07a7116d-42d6-4f99-ab4f-c68628ced867",
                            "name": "Updates properties of an existing Registration Source",
                            "request": {
                                "name": "Updates properties of an existing Registration Source",
                                "description": {},
                                "url": {
                                    "path": [
                                        "regsources",
                                        ":regSourceID"
                                    ],
                                    "host": [
                                        "{{baseUrl}}"
                                    ],
                                    "query": [],
                                    "variable": [
                                        {
                                            "description": {
                                                "content": "Entity id",
                                                "type": "text/plain"
                                            },
                                            "type": "any",
                                            "value": "<string>",
                                            "key": "regSourceID"
                                        }
                                    ]
                                },
                                "header": [
                                    {
                                        "key": "Content-Type",
                                        "value": "application/json"
                                    }
                                ],
                                "method": "PUT",
                                "body": {
                                    "mode": "raw",
                                    "raw": "{\n    \"Name\": \"Family Circle - 75th Anniversary Health Sweeps\",\n    \"Brand\": \"fitness\",\n    \"Category\": \"900002\",\n    \"SubCategory\": \"300002\",\n    \"Type\": [\n        \"type13\",\n        \"type37\"\n    ]\n}"
                                }
                            },
                            "response": [
                                {
                                    "id": "42186059-ccda-41bf-a7ad-dcd1fbe7e2ce",
                                    "name": "Success",
                                    "originalRequest": {
                                        "url": {
                                            "path": [
                                                "regsources",
                                                "<string>"
                                            ],
                                            "host": [
                                                "{{baseUrl}}"
                                            ],
                                            "query": [],
                                            "variable": []
                                        },
                                        "header": [
                                            {
                                                "key": "Content-Type",
                                                "value": "application/json"
                                            }
                                        ],
                                        "method": "PUT",
                                        "body": {
                                            "mode": "raw",
                                            "raw": "{\n    \"Name\": \"Family Circle - 75th Anniversary Health Sweeps\",\n    \"Brand\": \"fitness\",\n    \"Category\": \"900002\",\n    \"SubCategory\": \"300002\",\n    \"Type\": [\n        \"type13\",\n        \"type37\"\n    ]\n}"
                                        }
                                    },
                                    "status": "No Content",
                                    "code": 204,
                                    "header": [
                                        {
                                            "key": "Content-Type",
                                            "value": "text/plain"
                                        }
                                    ],
                                    "body": "",
                                    "cookie": [],
                                    "_postman_previewlanguage": "text"
                                },
                                {
                                    "id": "595c3ed1-22d4-4361-98ab-65fcbd1540cc",
                                    "name": "Registration source bad request",
                                    "originalRequest": {
                                        "url": {
                                            "path": [
                                                "regsources",
                                                "<string>"
                                            ],
                                            "host": [
                                                "{{baseUrl}}"
                                            ],
                                            "query": [],
                                            "variable": []
                                        },
                                        "header": [
                                            {
                                                "key": "Content-Type",
                                                "value": "application/json"
                                            }
                                        ],
                                        "method": "PUT",
                                        "body": {
                                            "mode": "raw",
                                            "raw": "{\n    \"Name\": \"Family Circle - 75th Anniversary Health Sweeps\",\n    \"Brand\": \"fitness\",\n    \"Category\": \"900002\",\n    \"SubCategory\": \"300002\",\n    \"Type\": [\n        \"type13\",\n        \"type37\"\n    ]\n}"
                                        }
                                    },
                                    "status": "Bad Request",
                                    "code": 400,
                                    "header": [
                                        {
                                            "key": "Content-Type",
                                            "value": "application/json"
                                        }
                                    ],
                                    "body": "{\n \"code\": \"<string>\",\n \"status\": \"<string>\",\n \"detail\": \"<string>\"\n}",
                                    "cookie": [],
                                    "_postman_previewlanguage": "json"
                                },
                                {
                                    "id": "6f79d710-9a45-4217-a1f9-b8204b9d55de",
                                    "name": "Registration source not founded",
                                    "originalRequest": {
                                        "url": {
                                            "path": [
                                                "regsources",
                                                "<string>"
                                            ],
                                            "host": [
                                                "{{baseUrl}}"
                                            ],
                                            "query": [],
                                            "variable": []
                                        },
                                        "header": [
                                            {
                                                "key": "Content-Type",
                                                "value": "application/json"
                                            }
                                        ],
                                        "method": "PUT",
                                        "body": {
                                            "mode": "raw",
                                            "raw": "{\n    \"Name\": \"Family Circle - 75th Anniversary Health Sweeps\",\n    \"Brand\": \"fitness\",\n    \"Category\": \"900002\",\n    \"SubCategory\": \"300002\",\n    \"Type\": [\n        \"type13\",\n        \"type37\"\n    ]\n}"
                                        }
                                    },
                                    "status": "Not Found",
                                    "code": 404,
                                    "header": [
                                        {
                                            "key": "Content-Type",
                                            "value": "application/json"
                                        }
                                    ],
                                    "body": "{\n \"code\": \"<string>\",\n \"status\": \"<string>\",\n \"detail\": \"<string>\"\n}",
                                    "cookie": [],
                                    "_postman_previewlanguage": "json"
                                }
                            ],
                            "event": []
                        },
                        {
                            "id": "992a8d00-d57a-4bb5-b34a-b86cdb95070c",
                            "name": "Deletes an existing Registration Source",
                            "request": {
                                "name": "Deletes an existing Registration Source",
                                "description": {},
                                "url": {
                                    "path": [
                                        "regsources",
                                        ":regSourceID"
                                    ],
                                    "host": [
                                        "{{baseUrl}}"
                                    ],
                                    "query": [],
                                    "variable": [
                                        {
                                            "description": {
                                                "content": "Entity id",
                                                "type": "text/plain"
                                            },
                                            "type": "any",
                                            "value": "<string>",
                                            "key": "regSourceID"
                                        }
                                    ]
                                },
                                "method": "DELETE"
                            },
                            "response": [
                                {
                                    "id": "3c801748-10b0-443b-895b-cac462eb1a96",
                                    "name": "Success",
                                    "originalRequest": {
                                        "url": {
                                            "path": [
                                                "regsources",
                                                "<string>"
                                            ],
                                            "host": [
                                                "{{baseUrl}}"
                                            ],
                                            "query": [],
                                            "variable": []
                                        },
                                        "method": "DELETE",
                                        "body": {}
                                    },
                                    "status": "No Content",
                                    "code": 204,
                                    "header": [
                                        {
                                            "key": "Content-Type",
                                            "value": "text/plain"
                                        }
                                    ],
                                    "body": "",
                                    "cookie": [],
                                    "_postman_previewlanguage": "text"
                                },
                                {
                                    "id": "26239e17-1755-4ebb-8b7e-3c0349d89f1e",
                                    "name": "Registration source bad request",
                                    "originalRequest": {
                                        "url": {
                                            "path": [
                                                "regsources",
                                                "<string>"
                                            ],
                                            "host": [
                                                "{{baseUrl}}"
                                            ],
                                            "query": [],
                                            "variable": []
                                        },
                                        "method": "DELETE",
                                        "body": {}
                                    },
                                    "status": "Bad Request",
                                    "code": 400,
                                    "header": [
                                        {
                                            "key": "Content-Type",
                                            "value": "application/json"
                                        }
                                    ],
                                    "body": "{\n \"code\": \"<string>\",\n \"status\": \"<string>\",\n \"detail\": \"<string>\"\n}",
                                    "cookie": [],
                                    "_postman_previewlanguage": "json"
                                },
                                {
                                    "id": "d39d45df-0298-499e-b4b3-3c1a0ff20ffa",
                                    "name": "Registration source not founded",
                                    "originalRequest": {
                                        "url": {
                                            "path": [
                                                "regsources",
                                                "<string>"
                                            ],
                                            "host": [
                                                "{{baseUrl}}"
                                            ],
                                            "query": [],
                                            "variable": []
                                        },
                                        "method": "DELETE",
                                        "body": {}
                                    },
                                    "status": "Not Found",
                                    "code": 404,
                                    "header": [
                                        {
                                            "key": "Content-Type",
                                            "value": "application/json"
                                        }
                                    ],
                                    "body": "{\n \"code\": \"<string>\",\n \"status\": \"<string>\",\n \"detail\": \"<string>\"\n}",
                                    "cookie": [],
                                    "_postman_previewlanguage": "json"
                                }
                            ],
                            "event": []
                        }
                    ],
                    "event": []
                }
            ],
            "event": []
        }
    ],
    "event": [],
    "variable": [
        {
            "id": "baseUrl",
            "type": "string",
            "value": "https://virtserver.swaggerhub.com/ezequiel.duran/RegSource/0.0.1"
        }
    ],
    "info": {
        "_postman_id": "dfc1e8dd-4fe1-4c62-b8ce-43a57bfbdbd0",
        "name": "Model for Registration Source",
        "version": {
            "raw": "0.0.1",
            "major": 0,
            "minor": 0,
            "patch": 1,
            "prerelease": [],
            "build": [],
            "string": "0.0.1"
        },
        "schema": "https://schema.getpostman.com/json/collection/v2.1.0/collection.json",
        "description": {
            "content": "Simple model api and schema for Regstration Source Based in the [mdcp-ss-27](https://jira.meredith.com/browse/MDCPSS-27?src=confmacro) and the [confluence](https://confluence.meredith.com/display/MDCPSS/Registration+Source) \n\nContact Support: \n{\n\nName : undefined\n\nEmail : gerardo.duran@globant.com\n\n}",
            "type": "text/plain"
        }
    }
}