{
  "getNewsletters": {
    "summary": "Fetch Newsletters",
    "description": "Fetch all newsletters",
    "queryParams": [
      {
        "name": "brandId",
        "description": "Id of the brand",
        "schema": {
          "type": "string"
        }
      }
    ],
    "methodResponses": [
      {
        "statusCode": "200",
        "responseModels": {
          "application/json": "NewsletterArrayResponse"
        }
      }
    ]
  },
  "postNewsletter": {
    "summary": "Creates a Newsletter Object",
    "description": "Adds a new Newsletter object to the Newsletter list.",
    "requestBody": {
      "description": "Create newsletter object"
    },
    "requestModels": {
      "application/json": "NewsletterCreateRequest"
    },
    "methodResponses": [
      {
        "statusCode": "201",
        "responseModels": {
          "application/json": "NewsletterObjectResponse"
        }
      },
      {
        "statusCode": "400",
        "responseModels": {
          "application/json": "ErrorResponse"
        }
      }
    ]
  },
  "getNewsletterById": {
    "summary": "Fetch Newsletter By Id",
    "description": "Get Newsletter Object by Newsletter Id",
    "pathParams": [
      {
        "name": "newsletterId",
        "description": "Id of newsletter",
        "schema": {
          "type": "string"
        }
      }
    ],
    "methodResponses": [
      {
        "statusCode": "200",
        "responseModels": {
          "application/json": "NewsletterObjectResponse"
        }
      },
      {
        "statusCode": "400",
        "responseModels": {
          "application/json": "ErrorResponse"
        }
      },
      {
        "statusCode": "404",
        "responseModels": {
          "application/json": "ErrorResponse"
        }
      }
    ]
  },
  "patchNewsletter": {
    "summary": "Updates an existing newsletter object",
    "description": "Updates on editable attributes",
    "requestBody": {
      "description": "Updated newsletter object"
    },
    "requestModels": {
      "application/json": "NewsletterUpdateRequest"
    },
    "requestHeaders": [
      {
        "name": "If-Match",
        "description": "Used for optimistic locking, must match ETag header from GET response"
      }
    ],
    "pathParams": [
      {
        "name": "newsletterId",
        "description": "Id of newsletter",
        "schema": {
          "type": "string"
        }
      }
    ],
    "methodResponses": [
      {
        "statusCode": "200",
        "responseModels": {
          "application/json": "NewsletterObjectResponse"
        }
      },
      {
        "statusCode": "400",
        "responseModels": {
          "application/json": "ErrorResponse"
        }
      },
      {
        "statusCode": "409",
        "responseModels": {
          "application/json": "ErrorResponse"
        }
      },
      {
        "statusCode": "412",
        "responseModels": {
          "application/json": "ErrorResponse"
        }
      }
    ]
  },
  "deleteNewsletter": {
    "summary": "Fetch Newsletter By Id",
    "description": "Delete Newsletter Object by Newsletter Id",
    "requestHeaders": [
      {
        "name": "If-Match",
        "description": "Used for optimistic locking, must match ETag header from GET response"
      }
    ],
    "pathParams": [
      {
        "name": "newsletterId",
        "description": "Id of newsletter",
        "schema": {
          "type": "string"
        }
      }
    ],
    "methodResponses": [
      {
        "statusCode": "204"
      },
      {
        "statusCode": "400",
        "responseModels": {
          "application/json": "ErrorResponse"
        }
      },
      {
        "statusCode": "409",
        "responseModels": {
          "application/json": "ErrorResponse"
        }
      },
      {
        "statusCode": "412",
        "responseModels": {
          "application/json": "ErrorResponse"
        }
      }
    ]
  }
}
