{
  "postRegistration": {
    "summary": "POST Registration",
    "description": "Create a new Registration for MDCP",   
    "requestModels": {
      "application/json": "RegistrationRequest"
    },
    "methodResponses": [
      {
        "statusCode": "200",
        "responseModels": {
          "application/json": "RegistrationObjectResponse"
        }
      },
      {
        "statusCode": "400",
        "responseModels": {
          "application/json": "ErrorResponse"
        }
      }
    ]
  }
}
