{
  "getRegSources": {
    "summary": "Fetch regsources",
    "description": "Retrieves all regsources",   
    "methodResponses": [
      {
        "statusCode": "200",
        "responseModels": {
          "application/json": "RegSourceArrayResponse"
        }
      }
    ]
  },
  "postRegSource": {
    "summary": "Creates a regsource",
    "description": "Create a new regsource Object",
    "requestBody": {
      "description": "Create source object"
    },
    "requestModels": {
      "application/json": "RegSourceCreateRequest"
    },
    "methodResponses": [
      {
        "statusCode": "201",
        "responseModels": {
          "application/json": "RegSourceObjectResponse"
        }
      },
      {
        "statusCode": "400",
        "responseModels": {
          "application/json": "ErrorResponse"
        }
      }
    ]
  },
  "getRegSourceById": {
    "summary": "Fetch a regsource",
    "description": "Get a regsource object by id",
    "pathParams": [
      {
        "name": "regsourceId",
        "description": "Id of the regsource",
        "schema": {
          "type": "string"
        }
      }
    ],
    "methodResponses": [
      {
        "statusCode": "200",
        "responseModels": {
          "application/json": "RegSourceObjectResponse"
        }
      },
      {
        "statusCode": "400",
        "responseModels": {
          "application/json": "ErrorResponse"
        }
      },
      {
        "statusCode": "404",
        "responseModels": {
          "application/json": "ErrorResponse"
        }
      }
    ]
  },
  "patchRegSource": {
    "summary": "Updates a regsource",
    "description": "Updates an existing regsource object.",
    "requestBody": {
      "description": "Updates a regsource object"
    },
    "requestModels": {
      "application/json": "RegSourceUpdateRequest"
    },
    "pathParams": [
      {
        "name": "regsourceId",
        "description": "Id of the regsource",
        "schema": {
          "type": "string"
        }
      }
    ],
    "methodResponses": [
      {
        "statusCode": "200",
        "responseModels": {
          "application/json": "RegSourceObjectResponse"
        }
      },
      {
        "statusCode": "400",
        "responseModels": {
          "application/json": "ErrorResponse"
        }
      },
      {
        "statusCode": "409",
        "responseModels": {
          "application/json": "ErrorResponse"
        }
      }     
    ]
  },
  "deleteRegSource": {
    "summary": "Deletes a regsource",
    "description": "Deletes regsource Object by Id",
    "pathParams": [
      {
        "name": "regsourceId",
        "description": "Id of the regsource",
        "schema": {
          "type": "string"
        }
      }
    ],
    "methodResponses": [
      {
        "statusCode": "204"
      },
      {
        "statusCode": "400",
        "responseModels": {
          "application/json": "ErrorResponse"
        }
      },
      {
        "statusCode": "409",
        "responseModels": {
          "application/json": "ErrorResponse"
        }
      }
    ]
  },
  "getRegSourceByBrandId": {
    "summary": "Fetch all regsources by brandId",
    "description": "Returns all regsources by brandId which are not archived (soft-deleted)",
    "queryParams": [
      {
        "name": "brandId",
        "description": "Id of a brand",
        "schema": {
          "type": "string"
        }
      }
    ],
    "methodResponses": [
      {
        "statusCode": "200",
        "responseModels": {
          "application/json": "RegSourceArrayResponse"
        }
      },
      {
        "statusCode": "400",
        "responseModels": {
          "application/json": "ErrorResponse"
        }
      },
      {
        "statusCode": "404",
        "responseModels": {
          "application/json": "ErrorResponse"
        }
      }
    ]
  }
}
